{
    "alphabets.mp4" : "mrbell_alphabets_320_240.mp4",
    "bodyparts.mp4" :"mrbell_body_parts_320_240.mp4",
    "colours.mp4" : "mrbell_colors_320_240.mp4",
    "counts.mp4"  : "mrbell_counting_320_240.mp4",
    "domesticanimals.mp4"  : "mrbell_domestic_320_240.mp4",
    "fruits.mp4"  : "mrbell_fruits_320_240.mp4",
    "opposites.mp4"  : "mrbell_opposites_320_240.mp4",
    "phonics.mp4"  : "mrbell_phonics_320_240.mp4",
    "planets.mp4"  : "mrbell_planets_320_240.mp4",
    "seaanimals.mp4"  : "mrbell_sea_animals_320_240.mp4",
    "shapes.mp4"  : "mrbell_shapes_320_240.mp4",
    "transports.mp4"  : "mrbell_transports_320_240.mp4",
    "vegetables.mp4"  : "mrbell_vegetables_320_240.mp4",
    
 }
